…
    ## ── Column specification ────────────────────────────────────────────────────────
    ## Delimiter: ","
    ## chr (3): Gender, Ethnicity, Child's First Name
    ## dbl (3): Year of Birth, Count, Rank

    ## 
    ## ℹ Use `spec()` to retrieve the full column specification for this data.
    ## ℹ Specify the column types or set `show_col_types = FALSE` to quiet this message.

``` r
# show the resulting datafram
babynames_df
```

    ## # A tibble: 6,137 × 6
    ##    year_of_birth gender ethnicity                  childs_first_name count  rank
    ##            <dbl> <chr>  <chr>                      <chr>             <dbl> <dbl>
    ##  1          2016 female asian and pacific islander olivia              172     1
    ##  2          2016 female asian and pacific islander chloe               112     2
    ##  3          2016 female asian and pacific islander sophia              104     3
    ##  4          2016 female asian and pacific islander emily                99     4
    ##  5          2016 female asian and pacific islander emma                 99     4
    ##  6          2016 female asian and pacific islander mia                  79     5
    ##  7          2016 female asian and pacific islander charlotte            59     6
    ##  8          2016 female asian and pacific islander sarah                57     7
    ##  9          2016 female asian and pacific islander isabella             56     8
    ## 10          2016 female asian and pacific islander hannah               56     8
    ## # … with 6,127 more rows
…
